1 televizoriai Samsung 5 369.35 LED 1920x1080
2 televizoriai LG 9 425.12 LED 1920x1080
3 nesiojamas-kompiuteris HP 8 800.	66 i7 8gb 500gb
4 nesiojamas-kompiuteris Lenovo 11 700.78 i3 8gb 1tb
5 skalbykle whirpool 7 321.13 8kg
6 dziovykle LG 4 421.12 4kg

